{
  "crawl": false,
  "customTests": [],
  "tests": [
    "svg",
    "csstransforms",
    "csstransforms3d",
    "inlinesvg",
    "touchevents"
  ],
  "options": [
    "setClasses"
  ],
  "uglify": true
}